%YAML 1.1
%TAG !u! tag:unity3d.com,2011:
--- !u!1 &57684499417715701
GameObject:
  m_ObjectHideFlags: 0
  m_CorrespondingSourceObject: {fileID: 0}
  m_PrefabInstance: {fileID: 0}
  m_PrefabAsset: {fileID: 0}
  serializedVersion: 6
  m_Component:
  - component: {fileID: 8183327157933790014}
  m_Layer: 0
  m_Name: PHSoldier_Prefab_001
  m_TagString: Untagged
  m_Icon: {fileID: 0}
  m_NavMeshLayer: 0
  m_StaticEditorFlags: 0
  m_IsActive: 1
--- !u!4 &8183327157933790014
Transform:
  m_ObjectHideFlags: 0
  m_CorrespondingSourceObject: {fileID: 0}
  m_PrefabInstance: {fileID: 0}
  m_PrefabAsset: {fileID: 0}
  m_GameObject: {fileID: 57684499417715701}
  m_LocalRotation: {x: 0, y: 0, z: 0, w: 1}
  m_LocalPosition: {x: 0, y: 0, z: 0}
  m_LocalScale: {x: 1, y: 1, z: 1}
  m_Children:
  - {fileID: 1972981849037802897}
  m_Father: {fileID: 0}
  m_RootOrder: 0
  m_LocalEulerAnglesHint: {x: 0, y: 0, z: 0}
--- !u!1001 &142458889946944286
PrefabInstance:
  m_ObjectHideFlags: 0
  serializedVersion: 2
  m_Modification:
    m_TransformParent: {fileID: 960643577894914802}
    m_Modifications:
    - target: {fileID: 1458046410508832, guid: cad07940ee7c44f419bbedb32b966f78, type: 3}
      propertyPath: m_Name
      value: ak74m
      objectReference: {fileID: 0}
    - target: {fileID: 4612571006016442, guid: cad07940ee7c44f419bbedb32b966f78, type: 3}
      propertyPath: m_LocalPosition.x
      value: -0.0228258
      objectReference: {fileID: 0}
    - target: {fileID: 4612571006016442, guid: cad07940ee7c44f419bbedb32b966f78, type: 3}
      propertyPath: m_LocalPosition.y
      value: 0.09274926
      objectReference: {fileID: 0}
    - target: {fileID: 4612571006016442, guid: cad07940ee7c44f419bbedb32b966f78, type: 3}
      propertyPath: m_LocalPosition.z
      value: 0.02592783
      objectReference: {fileID: 0}
    - target: {fileID: 4612571006016442, guid: cad07940ee7c44f419bbedb32b966f78, type: 3}
      propertyPath: m_LocalRotation.x
      value: -0.54888946
      objectReference: {fileID: 0}
    - target: {fileID: 4612571006016442, guid: cad07940ee7c44f419bbedb32b966f78, type: 3}
      propertyPath: m_LocalRotation.y
      value: 0.45403636
      objectReference: {fileID: 0}
    - target: {fileID: 4612571006016442, guid: cad07940ee7c44f419bbedb32b966f78, type: 3}
      propertyPath: m_LocalRotation.z
      value: 0.4797412
      objectReference: {fileID: 0}
    - target: {fileID: 4612571006016442, guid: cad07940ee7c44f419bbedb32b966f78, type: 3}
      propertyPath: m_LocalRotation.w
      value: 0.5122692
      objectReference: {fileID: 0}
    - target: {fileID: 4612571006016442, guid: cad07940ee7c44f419bbedb32b966f78, type: 3}
      propertyPath: m_RootOrder
      value: 5
      objectReference: {fileID: 0}
    - target: {fileID: 4612571006016442, guid: cad07940ee7c44f419bbedb32b966f78, type: 3}
      propertyPath: m_LocalEulerAnglesHint.x
      value: 40.039
      objectReference: {fileID: 0}
    - target: {fileID: 4612571006016442, guid: cad07940ee7c44f419bbedb32b966f78, type: 3}
      propertyPath: m_LocalEulerAnglesHint.y
      value: -60.120003
      objectReference: {fileID: 0}
    - target: {fileID: 4612571006016442, guid: cad07940ee7c44f419bbedb32b966f78, type: 3}
      propertyPath: m_LocalEulerAnglesHint.z
      value: -13.342001
      objectReference: {fileID: 0}
    m_RemovedComponents: []
  m_SourcePrefab: {fileID: 100100000, guid: cad07940ee7c44f419bbedb32b966f78, type: 3}
--- !u!1001 &6781229474595251851
PrefabInstance:
  m_ObjectHideFlags: 0
  serializedVersion: 2
  m_Modification:
    m_TransformParent: {fileID: 8183327157933790014}
    m_Modifications:
    - target: {fileID: -4216859302048453862, guid: fd21ba16a8965e0458a9b707ff279e76,
        type: 3}
      propertyPath: m_LocalPosition.x
      value: 0
      objectReference: {fileID: 0}
    - target: {fileID: -4216859302048453862, guid: fd21ba16a8965e0458a9b707ff279e76,
        type: 3}
      propertyPath: m_LocalPosition.y
      value: 0
      objectReference: {fileID: 0}
    - target: {fileID: -4216859302048453862, guid: fd21ba16a8965e0458a9b707ff279e76,
        type: 3}
      propertyPath: m_LocalPosition.z
      value: 0
      objectReference: {fileID: 0}
    - target: {fileID: -4216859302048453862, guid: fd21ba16a8965e0458a9b707ff279e76,
        type: 3}
      propertyPath: m_LocalRotation.x
      value: -0
      objectReference: {fileID: 0}
    - target: {fileID: -4216859302048453862, guid: fd21ba16a8965e0458a9b707ff279e76,
        type: 3}
      propertyPath: m_LocalRotation.y
      value: -0
      objectReference: {fileID: 0}
    - target: {fileID: -4216859302048453862, guid: fd21ba16a8965e0458a9b707ff279e76,
        type: 3}
      propertyPath: m_LocalRotation.z
      value: -0
      objectReference: {fileID: 0}
    - target: {fileID: -4216859302048453862, guid: fd21ba16a8965e0458a9b707ff279e76,
        type: 3}
      propertyPath: m_LocalRotation.w
      value: 1
      objectReference: {fileID: 0}
    - target: {fileID: -4216859302048453862, guid: fd21ba16a8965e0458a9b707ff279e76,
        type: 3}
      propertyPath: m_RootOrder
      value: 0
      objectReference: {fileID: 0}
    - target: {fileID: -4216859302048453862, guid: fd21ba16a8965e0458a9b707ff279e76,
        type: 3}
      propertyPath: m_LocalEulerAnglesHint.x
      value: 0
      objectReference: {fileID: 0}
    - target: {fileID: -4216859302048453862, guid: fd21ba16a8965e0458a9b707ff279e76,
        type: 3}
      propertyPath: m_LocalEulerAnglesHint.y
      value: 0
      objectReference: {fileID: 0}
    - target: {fileID: -4216859302048453862, guid: fd21ba16a8965e0458a9b707ff279e76,
        type: 3}
      propertyPath: m_LocalEulerAnglesHint.z
      value: 0
      objectReference: {fileID: 0}
    - target: {fileID: -927199367670048503, guid: fd21ba16a8965e0458a9b707ff279e76,
        type: 3}
      propertyPath: m_Name
      value: PHSoldierModel_01
      objectReference: {fileID: 0}
    m_RemovedComponents: []
  m_SourcePrefab: {fileID: 100100000, guid: fd21ba16a8965e0458a9b707ff279e76, type: 3}
--- !u!4 &1972981849037802897 stripped
Transform:
  m_CorrespondingSourceObject: {fileID: -4216859302048453862, guid: fd21ba16a8965e0458a9b707ff279e76,
    type: 3}
  m_PrefabInstance: {fileID: 6781229474595251851}
  m_PrefabAsset: {fileID: 0}
--- !u!4 &960643577894914802 stripped
Transform:
  m_CorrespondingSourceObject: {fileID: -3220319501169496967, guid: fd21ba16a8965e0458a9b707ff279e76,
    type: 3}
  m_PrefabInstance: {fileID: 6781229474595251851}
  m_PrefabAsset: {fileID: 0}
